^C:\USERS\MENNO\DOCUMENTS\VISUAL STUDIO 2010\PROJECTS\MANDELBROT\MANDELBROT\DEBUG\.NETFRAMEWORK,VERSION=V4.0.ASSEMBLYATTRIBUTES.OBJ|C:\USERS\MENNO\DOCUMENTS\VISUAL STUDIO 2010\PROJECTS\MANDELBROT\MANDELBROT\DEBUG\APP.RES|C:\USERS\MENNO\DOCUMENTS\VISUAL STUDIO 2010\PROJECTS\MANDELBROT\MANDELBROT\DEBUG\ASSEMBLYINFO.OBJ|C:\USERS\MENNO\DOCUMENTS\VISUAL STUDIO 2010\PROJECTS\MANDELBROT\MANDELBROT\DEBUG\BUDDHABROTCLASS.OBJ|C:\USERS\MENNO\DOCUMENTS\VISUAL STUDIO 2010\PROJECTS\MANDELBROT\MANDELBROT\DEBUG\COMPLEX.OBJ|C:\USERS\MENNO\DOCUMENTS\VISUAL STUDIO 2010\PROJECTS\MANDELBROT\MANDELBROT\DEBUG\JULIACLASS.OBJ|C:\USERS\MENNO\DOCUMENTS\VISUAL STUDIO 2010\PROJECTS\MANDELBROT\MANDELBROT\DEBUG\MAIN.OBJ|C:\USERS\MENNO\DOCUMENTS\VISUAL STUDIO 2010\PROJECTS\MANDELBROT\MANDELBROT\DEBUG\MANDELBROTCLASS.OBJ|C:\USERS\MENNO\DOCUMENTS\VISUAL STUDIO 2010\PROJECTS\MANDELBROT\MANDELBROT\DEBUG\MTRAND.OBJ|C:\USERS\MENNO\DOCUMENTS\VISUAL STUDIO 2010\PROJECTS\MANDELBROT\MANDELBROT\DEBUG\PICTUREFRAMEDIALOG.OBJ|C:\USERS\MENNO\DOCUMENTS\VISUAL STUDIO 2010\PROJECTS\MANDELBROT\MANDELBROT\DEBUG\POINT TO TRACE.OBJ|C:\USERS\MENNO\DOCUMENTS\VISUAL STUDIO 2010\PROJECTS\MANDELBROT\MANDELBROT\DEBUG\PROGRAM.OBJ|C:\USERS\MENNO\DOCUMENTS\VISUAL STUDIO 2010\PROJECTS\MANDELBROT\MANDELBROT\DEBUG\VISUALS.OBJ
C:\PROGRAM FILES\MICROSOFT SDKS\WINDOWS\V7.0A\LIB\KERNEL32.LIB
C:\PROGRAM FILES\MICROSOFT SDKS\WINDOWS\V7.0A\LIB\USER32.LIB
C:\PROGRAM FILES\MICROSOFT SDKS\WINDOWS\V7.0A\LIB\GDI32.LIB
C:\PROGRAM FILES\MICROSOFT SDKS\WINDOWS\V7.0A\LIB\WINSPOOL.LIB
C:\PROGRAM FILES\MICROSOFT SDKS\WINDOWS\V7.0A\LIB\COMDLG32.LIB
C:\PROGRAM FILES\MICROSOFT SDKS\WINDOWS\V7.0A\LIB\ADVAPI32.LIB
C:\PROGRAM FILES\MICROSOFT SDKS\WINDOWS\V7.0A\LIB\SHELL32.LIB
C:\PROGRAM FILES\MICROSOFT SDKS\WINDOWS\V7.0A\LIB\OLE32.LIB
C:\PROGRAM FILES\MICROSOFT SDKS\WINDOWS\V7.0A\LIB\OLEAUT32.LIB
C:\PROGRAM FILES\MICROSOFT SDKS\WINDOWS\V7.0A\LIB\UUID.LIB
C:\PROGRAM FILES\MICROSOFT SDKS\WINDOWS\V7.0A\LIB\ODBC32.LIB
C:\PROGRAM FILES\MICROSOFT SDKS\WINDOWS\V7.0A\LIB\ODBCCP32.LIB
C:\USERS\MENNO\DOCUMENTS\VISUAL STUDIO 2010\PROJECTS\MANDELBROT\MANDELBROT\DEBUG\APP.RES
C:\USERS\MENNO\DOCUMENTS\VISUAL STUDIO 2010\PROJECTS\MANDELBROT\MANDELBROT\DEBUG\ASSEMBLYINFO.OBJ
C:\USERS\MENNO\DOCUMENTS\VISUAL STUDIO 2010\PROJECTS\MANDELBROT\MANDELBROT\DEBUG\BUDDHABROTCLASS.OBJ
C:\USERS\MENNO\DOCUMENTS\VISUAL STUDIO 2010\PROJECTS\MANDELBROT\MANDELBROT\DEBUG\COMPLEX.OBJ
C:\USERS\MENNO\DOCUMENTS\VISUAL STUDIO 2010\PROJECTS\MANDELBROT\MANDELBROT\DEBUG\JULIACLASS.OBJ
C:\USERS\MENNO\DOCUMENTS\VISUAL STUDIO 2010\PROJECTS\MANDELBROT\MANDELBROT\DEBUG\MAIN.OBJ
C:\USERS\MENNO\DOCUMENTS\VISUAL STUDIO 2010\PROJECTS\MANDELBROT\MANDELBROT\DEBUG\MANDELBROTCLASS.OBJ
C:\USERS\MENNO\DOCUMENTS\VISUAL STUDIO 2010\PROJECTS\MANDELBROT\MANDELBROT\DEBUG\MTRAND.OBJ
C:\USERS\MENNO\DOCUMENTS\VISUAL STUDIO 2010\PROJECTS\MANDELBROT\MANDELBROT\DEBUG\PICTUREFRAMEDIALOG.OBJ
C:\USERS\MENNO\DOCUMENTS\VISUAL STUDIO 2010\PROJECTS\MANDELBROT\MANDELBROT\DEBUG\POINT TO TRACE.OBJ
C:\USERS\MENNO\DOCUMENTS\VISUAL STUDIO 2010\PROJECTS\MANDELBROT\MANDELBROT\DEBUG\PROGRAM.OBJ
C:\USERS\MENNO\DOCUMENTS\VISUAL STUDIO 2010\PROJECTS\MANDELBROT\MANDELBROT\DEBUG\VISUALS.OBJ
C:\USERS\MENNO\DOCUMENTS\VISUAL STUDIO 2010\PROJECTS\MANDELBROT\MANDELBROT\DEBUG\.NETFRAMEWORK,VERSION=V4.0.ASSEMBLYATTRIBUTES.OBJ
C:\WINDOWS\SYSTEM32\TZRES.DLL
C:\WINDOWS\GLOBALIZATION\SORTING\SORTDEFAULT.NLS
C:\PROGRAM FILES\MICROSOFT VISUAL STUDIO 10.0\VC\BIN\LINK.EXE
C:\WINDOWS\SYSTEM32\RSAENH.DLL
C:\WINDOWS\MICROSOFT.NET\FRAMEWORK\V2.0.50727\MSCORWKS.DLL
C:\WINDOWS\MICROSOFT.NET\FRAMEWORK\V4.0.30319\CLR.DLL
C:\PROGRAM FILES\MICROSOFT VISUAL STUDIO 10.0\VC\BIN\LINK.EXE.CONFIG
C:\PROGRAM FILES\MICROSOFT VISUAL STUDIO 10.0\VC\LIB\MSVCRT.LIB
C:\PROGRAM FILES\MICROSOFT VISUAL STUDIO 10.0\VC\LIB\OLDNAMES.LIB
C:\PROGRAM FILES\MICROSOFT VISUAL STUDIO 10.0\VC\LIB\MSVCMRT.LIB
C:\PROGRAM FILES\MICROSOFT SDKS\WINDOWS\V7.0A\LIB\MSCOREE.LIB
C:\PROGRAM FILES\MICROSOFT VISUAL STUDIO 10.0\VC\LIB\MSVCPRTD.LIB
C:\PROGRAM FILES\MICROSOFT VISUAL STUDIO 10.0\VC\BIN\CVTRES.EXE
C:\USERS\MENNO\DOCUMENTS\VISUAL STUDIO 2010\PROJECTS\MANDELBROT\MANDELBROT\DEBUG\MANDELBROT.CUSTOMSCHEME.RESOURCES
C:\USERS\MENNO\DOCUMENTS\VISUAL STUDIO 2010\PROJECTS\MANDELBROT\MANDELBROT\DEBUG\MANDELBROT.FORM1.RESOURCES
C:\USERS\MENNO\DOCUMENTS\VISUAL STUDIO 2010\PROJECTS\MANDELBROT\MANDELBROT\DEBUG\MANDELBROT.PICTUREFRAMEDIALOG.RESOURCES
C:\USERS\MENNO\DOCUMENTS\VISUAL STUDIO 2010\PROJECTS\MANDELBROT\MANDELBROT\DEBUG\MANDELBROT.PICTURETOOBIGFORM.RESOURCES
C:\USERS\MENNO\DOCUMENTS\VISUAL STUDIO 2010\PROJECTS\MANDELBROT\MANDELBROT\DEBUG\MANDELBROT.POINT TO TRACE.RESOURCES
